lab041/simulation/qsim/lab041.msim.vcd
$comment
	File created using the following command:
		vcd file lab041.msim.vcd -direction
$end
$date
	Wed Dec 14 23:43:36 2022
$end
$version
	ModelSim Version 10.1d
$end
$timescale
	1ps
$end
$scope module lab0412_vlg_vec_tst $end
$var reg 1 ! a0 $end
$var reg 1 " a1 $end
$var reg 1 # a2 $end
$var reg 1 $ a3 $end
$var reg 1 % on $end
$var wire 1 & d0 $end
$var wire 1 ' d1 $end
$var wire 1 ( d2 $end
$var wire 1 ) d3 $end
$var wire 1 * d4 $end
$var wire 1 + d5 $end
$var wire 1 , d6 $end
$var wire 1 - d7 $end
$var wire 1 . d8 $end
$var wire 1 / d9 $end
$var wire 1 0 d10 $end
$var wire 1 1 d11 $end
$var wire 1 2 d12 $end
$var wire 1 3 d13 $end
$var wire 1 4 d14 $end
$var wire 1 5 d15 $end
$var wire 1 6 sampler $end
$scope module i1 $end
$var wire 1 7 gnd $end
$var wire 1 8 vcc $end
$var wire 1 9 unknown $end
$var tri1 1 : devclrn $end
$var tri1 1 ; devpor $end
$var tri1 1 < devoe $end
$var wire 1 = d15~output_o $end
$var wire 1 > d14~output_o $end
$var wire 1 ? d13~output_o $end
$var wire 1 @ d12~output_o $end
$var wire 1 A d11~output_o $end
$var wire 1 B d10~output_o $end
$var wire 1 C d9~output_o $end
$var wire 1 D d8~output_o $end
$var wire 1 E d7~output_o $end
$var wire 1 F d6~output_o $end
$var wire 1 G d5~output_o $end
$var wire 1 H d4~output_o $end
$var wire 1 I d3~output_o $end
$var wire 1 J d2~output_o $end
$var wire 1 K d1~output_o $end
$var wire 1 L d0~output_o $end
$var wire 1 M a1~input_o $end
$var wire 1 N a2~input_o $end
$var wire 1 O on~input_o $end
$var wire 1 P a0~input_o $end
$var wire 1 Q a3~input_o $end
$var wire 1 R inst17|inst~0_combout $end
$var wire 1 S inst17|inst~1_combout $end
$var wire 1 T inst17|inst8~0_combout $end
$var wire 1 U inst17|inst6~0_combout $end
$var wire 1 V inst17|inst7~0_combout $end
$var wire 1 W inst17|inst8~1_combout $end
$var wire 1 X inst16|inst~0_combout $end
$var wire 1 Y inst16|inst6~0_combout $end
$var wire 1 Z inst16|inst7~0_combout $end
$var wire 1 [ inst16|inst8~0_combout $end
$var wire 1 \ inst15|inst~0_combout $end
$var wire 1 ] inst15|inst~1_combout $end
$var wire 1 ^ inst15|inst8~0_combout $end
$var wire 1 _ inst15|inst6~0_combout $end
$var wire 1 ` inst15|inst7~0_combout $end
$var wire 1 a inst15|inst8~1_combout $end
$var wire 1 b inst13|inst~0_combout $end
$var wire 1 c inst13|inst6~0_combout $end
$var wire 1 d inst13|inst7~0_combout $end
$var wire 1 e inst13|inst8~0_combout $end
$upscope $end
$upscope $end
$enddefinitions $end
#0
$dumpvars
0!
0"
0#
0$
1%
1&
0'
0(
0)
0*
0+
0,
0-
0.
0/
00
01
02
03
04
05
x6
07
18
x9
1:
1;
1<
0=
0>
0?
0@
0A
0B
0C
0D
0E
0F
0G
0H
0I
0J
0K
1L
0M
0N
1O
0P
0Q
0R
0S
0T
0U
0V
0W
0X
0Y
0Z
0[
0\
0]
1^
0_
0`
0a
0b
0c
0d
1e
$end
#10000
1!
1P
06
0^
1\
0e
1d
0L
1K
0&
1'
#20000
1"
0!
1M
0P
16
1^
0\
0d
1b
0K
1I
0'
1)
1c
0b
1J
0I
1(
0)
#30000
1!
1P
06
0^
1\
0c
1b
0J
1I
0(
1)
#40000
1#
0"
0!
1N
0M
0P
16
1^
0\
0b
1`
0I
1G
0)
1+
1a
0`
1H
0G
1*
0+
#50000
1!
1P
06
0^
1\
0a
1`
0H
1G
0*
1+
#60000
1"
0!
1M
0P
16
1^
0\
0`
1]
0G
1E
0+
1-
1_
0]
1F
0E
1,
0-
#70000
1!
1P
06
0^
1\
0_
1]
0F
1E
0,
1-
#80000
1$
0#
0"
0!
1Q
0N
0M
0P
16
0\
1T
1d
0]
1K
0E
1'
0-
0d
1[
0K
1D
0'
1.
#90000
1!
1P
06
0T
1R
0[
1Z
0D
1C
0.
1/
#100000
1"
0!
1M
0P
16
1T
0R
0Z
1X
0C
1A
0/
11
1Y
0X
1B
0A
10
01
#110000
1!
1P
06
0T
1R
0Y
1X
0B
1A
00
11
#120000
1#
0"
0!
1N
0M
0P
16
1T
0R
0X
1V
0A
1?
01
13
1W
0V
1@
0?
12
03
#130000
1!
1P
06
0T
1R
0W
1V
0@
1?
02
13
#140000
1"
0!
1M
0P
16
1T
0R
0V
1S
0?
1=
03
15
1U
0S
1>
0=
14
05
#150000
1!
1P
06
0T
1R
0U
1S
0>
1=
04
15
#160000
0$
0#
0"
0!
0Q
0N
0M
0P
16
1^
0R
1Z
0S
1C
0=
1/
05
1e
0Z
1L
0C
1&
0/
#170000
1!
1P
06
0^
1\
0e
1d
0L
1K
0&
1'
#180000
1"
0!
1M
0P
16
1^
0\
0d
1b
0K
1I
0'
1)
1c
0b
1J
0I
1(
0)
#190000
1!
1P
06
0^
1\
0c
1b
0J
1I
0(
1)
#200000
1#
0"
0!
1N
0M
0P
16
1^
0\
0b
1`
0I
1G
0)
1+
1a
0`
1H
0G
1*
0+
#210000
1!
1P
06
0^
1\
0a
1`
0H
1G
0*
1+
#220000
1"
0!
1M
0P
16
1^
0\
0`
1]
0G
1E
0+
1-
1_
0]
1F
0E
1,
0-
#230000
1!
1P
06
0^
1\
0_
1]
0F
1E
0,
1-
#240000
1$
0#
0"
0!
1Q
0N
0M
0P
16
0\
1T
1d
0]
1K
0E
1'
0-
0d
1[
0K
1D
0'
1.
#250000
1!
1P
06
0T
1R
0[
1Z
0D
1C
0.
1/
#260000
1"
0!
1M
0P
16
1T
0R
0Z
1X
0C
1A
0/
11
1Y
0X
1B
0A
10
01
#270000
1!
1P
06
0T
1R
0Y
1X
0B
1A
00
11
#280000
1#
0"
0!
1N
0M
0P
16
1T
0R
0X
1V
0A
1?
01
13
1W
0V
1@
0?
12
03
#290000
1!
1P
06
0T
1R
0W
1V
0@
1?
02
13
#300000
1"
0!
1M
0P
16
1T
0R
0V
1S
0?
1=
03
15
1U
0S
1>
0=
14
05
#310000
1!
1P
06
0T
1R
0U
1S
0>
1=
04
15
#320000
0$
0#
0"
0!
0Q
0N
0M
0P
16
1^
0R
1Z
0S
1C
0=
1/
05
1e
0Z
1L
0C
1&
0/
#330000
1!
1P
06
0^
1\
0e
1d
0L
1K
0&
1'
#340000
1"
0!
1M
0P
16
1^
0\
0d
1b
0K
1I
0'
1)
1c
0b
1J
0I
1(
0)
#350000
1!
1P
06
0^
1\
0c
1b
0J
1I
0(
1)
#360000
1#
0"
0!
1N
0M
0P
16
1^
0\
0b
1`
0I
1G
0)
1+
1a
0`
1H
0G
1*
0+
#370000
1!
1P
06
0^
1\
0a
1`
0H
1G
0*
1+
#380000
1"
0!
1M
0P
16
1^
0\
0`
1]
0G
1E
0+
1-
1_
0]
1F
0E
1,
0-
#390000
1!
1P
06
0^
1\
0_
1]
0F
1E
0,
1-
#400000
1$
0#
0"
0!
1Q
0N
0M
0P
16
0\
1T
1d
0]
1K
0E
1'
0-
0d
1[
0K
1D
0'
1.
#410000
1!
1P
06
0T
1R
0[
1Z
0D
1C
0.
1/
#420000
1"
0!
1M
0P
16
1T
0R
0Z
1X
0C
1A
0/
11
1Y
0X
1B
0A
10
01
#430000
1!
1P
06
0T
1R
0Y
1X
0B
1A
00
11
#440000
1#
0"
0!
1N
0M
0P
16
1T
0R
0X
1V
0A
1?
01
13
1W
0V
1@
0?
12
03
#450000
1!
1P
06
0T
1R
0W
1V
0@
1?
02
13
#460000
1"
0!
1M
0P
16
1T
0R
0V
1S
0?
1=
03
15
1U
0S
1>
0=
14
05
#470000
1!
1P
06
0T
1R
0U
1S
0>
1=
04
15
#480000
0$
0#
0"
0!
0Q
0N
0M
0P
16
1^
0R
1Z
0S
1C
0=
1/
05
1e
0Z
1L
0C
1&
0/
#490000
1!
1P
06
0^
1\
0e
1d
0L
1K
0&
1'
#500000
1"
0!
1M
0P
16
1^
0\
0d
1b
0K
1I
0'
1)
1c
0b
1J
0I
1(
0)
#510000
1!
1P
06
0^
1\
0c
1b
0J
1I
0(
1)
#520000
1#
0"
0!
1N
0M
0P
16
1^
0\
0b
1`
0I
1G
0)
1+
1a
0`
1H
0G
1*
0+
#530000
1!
1P
06
0^
1\
0a
1`
0H
1G
0*
1+
#540000
1"
0!
1M
0P
16
1^
0\
0`
1]
0G
1E
0+
1-
1_
0]
1F
0E
1,
0-
#550000
1!
1P
06
0^
1\
0_
1]
0F
1E
0,
1-
#560000
1$
0#
0"
0!
1Q
0N
0M
0P
16
0\
1T
1d
0]
1K
0E
1'
0-
0d
1[
0K
1D
0'
1.
#570000
1!
1P
06
0T
1R
0[
1Z
0D
1C
0.
1/
#580000
1"
0!
1M
0P
16
1T
0R
0Z
1X
0C
1A
0/
11
1Y
0X
1B
0A
10
01
#590000
1!
1P
06
0T
1R
0Y
1X
0B
1A
00
11
#600000
1#
0"
0!
1N
0M
0P
16
1T
0R
0X
1V
0A
1?
01
13
1W
0V
1@
0?
12
03
#610000
1!
1P
06
0T
1R
0W
1V
0@
1?
02
13
#620000
1"
0!
1M
0P
16
1T
0R
0V
1S
0?
1=
03
15
1U
0S
1>
0=
14
05
#630000
1!
1P
06
0T
1R
0U
1S
0>
1=
04
15
#640000
0$
0#
0"
0!
0Q
0N
0M
0P
16
1^
0R
1Z
0S
1C
0=
1/
05
1e
0Z
1L
0C
1&
0/
#650000
1!
1P
06
0^
1\
0e
1d
0L
1K
0&
1'
#660000
1"
0!
1M
0P
16
1^
0\
0d
1b
0K
1I
0'
1)
1c
0b
1J
0I
1(
0)
#670000
1!
1P
06
0^
1\
0c
1b
0J
1I
0(
1)
#680000
1#
0"
0!
1N
0M
0P
16
1^
0\
0b
1`
0I
1G
0)
1+
1a
0`
1H
0G
1*
0+
#690000
1!
1P
06
0^
1\
0a
1`
0H
1G
0*
1+
#700000
1"
0!
1M
0P
16
1^
0\
0`
1]
0G
1E
0+
1-
1_
0]
1F
0E
1,
0-
#710000
1!
1P
06
0^
1\
0_
1]
0F
1E
0,
1-
#720000
1$
0#
0"
0!
1Q
0N
0M
0P
16
0\
1T
1d
0]
1K
0E
1'
0-
0d
1[
0K
1D
0'
1.
#730000
1!
1P
06
0T
1R
0[
1Z
0D
1C
0.
1/
#740000
1"
0!
1M
0P
16
1T
0R
0Z
1X
0C
1A
0/
11
1Y
0X
1B
0A
10
01
#750000
1!
1P
06
0T
1R
0Y
1X
0B
1A
00
11
#760000
1#
0"
0!
1N
0M
0P
16
1T
0R
0X
1V
0A
1?
01
13
1W
0V
1@
0?
12
03
#770000
1!
1P
06
0T
1R
0W
1V
0@
1?
02
13
#780000
1"
0!
1M
0P
16
1T
0R
0V
1S
0?
1=
03
15
1U
0S
1>
0=
14
05
#790000
1!
1P
06
0T
1R
0U
1S
0>
1=
04
15
#800000
0$
0#
0"
0!
0Q
0N
0M
0P
16
1^
0R
1Z
0S
1C
0=
1/
05
1e
0Z
1L
0C
1&
0/
#810000
1!
1P
06
0^
1\
0e
1d
0L
1K
0&
1'
#820000
1"
0!
1M
0P
16
1^
0\
0d
1b
0K
1I
0'
1)
1c
0b
1J
0I
1(
0)
#830000
1!
1P
06
0^
1\
0c
1b
0J
1I
0(
1)
#840000
1#
0"
0!
1N
0M
0P
16
1^
0\
0b
1`
0I
1G
0)
1+
1a
0`
1H
0G
1*
0+
#850000
1!
1P
06
0^
1\
0a
1`
0H
1G
0*
1+
#860000
1"
0!
1M
0P
16
1^
0\
0`
1]
0G
1E
0+
1-
1_
0]
1F
0E
1,
0-
#870000
1!
1P
06
0^
1\
0_
1]
0F
1E
0,
1-
#880000
1$
0#
0"
0!
1Q
0N
0M
0P
16
0\
1T
1d
0]
1K
0E
1'
0-
0d
1[
0K
1D
0'
1.
#890000
1!
1P
06
0T
1R
0[
1Z
0D
1C
0.
1/
#900000
1"
0!
1M
0P
16
1T
0R
0Z
1X
0C
1A
0/
11
1Y
0X
1B
0A
10
01
#910000
1!
1P
06
0T
1R
0Y
1X
0B
1A
00
11
#920000
1#
0"
0!
1N
0M
0P
16
1T
0R
0X
1V
0A
1?
01
13
1W
0V
1@
0?
12
03
#930000
1!
1P
06
0T
1R
0W
1V
0@
1?
02
13
#940000
1"
0!
1M
0P
16
1T
0R
0V
1S
0?
1=
03
15
1U
0S
1>
0=
14
05
#950000
1!
1P
06
0T
1R
0U
1S
0>
1=
04
15
#960000
0$
0#
0"
0!
0Q
0N
0M
0P
16
1^
0R
1Z
0S
1C
0=
1/
05
1e
0Z
1L
0C
1&
0/
#970000
1!
1P
06
0^
1\
0e
1d
0L
1K
0&
1'
#980000
1"
0!
1M
0P
16
1^
0\
0d
1b
0K
1I
0'
1)
1c
0b
1J
0I
1(
0)
#990000
1!
1P
06
0^
1\
0c
1b
0J
1I
0(
1)
